<?xml version="1.0" encoding="UTF-8" standalone="no"?>
<svg width="449.85632" height="449.85632" viewBox="0 0 449.85632 449.85632" version="1.1" xml:space="preserve" style="clip-rule:evenodd;fill-rule:evenodd;stroke-linejoin:round;stroke-miterlimit:1.5" id="svg50" sodipodi:docname="icon.svg" inkscape:export-filename="icon.png" inkscape:export-xdpi="96" inkscape:export-ydpi="96" inkscape:version="1.2.1 (9c6d41e410, 2022-07-14)" xmlns:inkscape="http://www.inkscape.org/namespaces/inkscape" xmlns:sodipodi="http://sodipodi.sourceforge.net/DTD/sodipodi-0.dtd" xmlns="http://www.w3.org/2000/svg" xmlns:svg="http://www.w3.org/2000/svg"><defs id="defs54"/><sodipodi:namedview id="namedview52" pagecolor="#ffffff" bordercolor="#666666" borderopacity="1.0" inkscape:showpageshadow="2" inkscape:pageopacity="0.0" inkscape:pagecheckerboard="0" inkscape:deskcolor="#d1d1d1" showgrid="false" inkscape:zoom="0.39932318" inkscape:cx="1243.3538" inkscape:cy="235.39831" inkscape:window-width="1920" inkscape:window-height="1011" inkscape:window-x="0" inkscape:window-y="0" inkscape:window-maximized="1" inkscape:current-layer="svg50"/>
    <g transform="matrix(1.18075,0,0,1.18075,-1327.7345,-1457.0739)" id="g4">
        <circle cx="1314.98" cy="1424.52" r="190.496" style="fill:#5856e0" id="circle2"/>
    </g>
    <g transform="translate(-1079.9145,-1201.8039)" id="g14">
        <g transform="rotate(44.980189,1285.2778,1352.166)" id="g8">
            <path d="m 1244.39,1293.95 v 199.64 c 0,0 -0.81,67.89 74.9,68.88 75.98,0.99 74.88,-68.88 74.88,-68.88 v -199.64" style="fill:none;stroke:#ffffff;stroke-width:31.25px" id="path6"/>
        </g>
        <g transform="rotate(-135.24037,1335.1334,1418.8316)" id="g12">
            <path d="m 1244.39,1293.95 v 199.64 c 0,0 -0.81,67.89 74.9,68.88 75.98,0.99 74.88,-68.88 74.88,-68.88 v -199.64" style="fill:none;stroke:#ffffff;stroke-width:31.25px" id="path10"/>
        </g>
    </g>
    
<script xmlns="" id="bw-fido2-page-script"/></svg>